Economic portrait of greater Philadelphia
…
Findings: Philadelphia had the largest manufacturing decline both in percentage terms and absolute value, but its overall GDP remained positive. Delaware County, by contrast, lost 12% of its manufacturing output and saw its overall GDP turn negative. Maybe its economy is more vulnerable and lacks other industries to fill the gap left by manufacturing’s decline.

delaware_all <- gdp_industry |>
  filter(str_detect(geo_name, "Delaware, PA"))  |>
  select(geo_name, description, x2022, x2024) |>
  mutate(pct_24_v_22 = round((x2024 - x2022) / x2022, 4)) |>
  mutate(x24_v_22 = x2024 - x2022) |>
  arrange(desc(x24_v_22))

delaware_all

# A tibble: 35 × 6
   geo_name     description                    x2022  x2024 pct_24_v_22 x24_v_22
   <chr>        <chr>                          <dbl>  <dbl>       <dbl>    <dbl>
 1 Delaware, PA Private services-providing i… 3.19e7 3.47e7      0.0863  2756246
 2 Delaware, PA All industry total            3.99e7 4.26e7      0.068   2712311
 3 Delaware, PA Private industries            3.73e7 3.97e7      0.0648  2415618
 4 Delaware, PA Real estate and rental and l… 6.32e6 7.06e6      0.116    734971
 5 Delaware, PA Professional and business se… 5.85e6 6.57e6      0.124    727266
 6 Delaware, PA Educational services, health… 5.08e6 5.76e6      0.134    678699
 7 Delaware, PA Finance, insurance, real est… 9.88e6 1.04e7      0.054    533901
 8 Delaware, PA Health care and social assis… 3.71e6 4.21e6      0.136    505281
 9 Delaware, PA Management of companies and … 2.06e6 2.49e6      0.208    428733
10 Delaware, PA Trade                         4.06e6 4.42e6      0.0888   360522
# ℹ 25 more rows
…
Warning: There were 5 warnings in `mutate()`.
The first warning was:
ℹ In argument: `across(6:10, as.numeric)`.
Caused by warning:
! NAs introduced by coercion
ℹ Run `dplyr::last_dplyr_warnings()` to see the 4 remaining warnings.

philly_oes_25

# A tibble: 757 × 11
   area  area_title    occ_code occ_title o_group tot_emp h_mean a_mean h_median
   <chr> <chr>         <chr>    <chr>     <chr>     <dbl>  <dbl>  <dbl>    <dbl>
 1 37980 Philadelphia… 00-0000  All Occu… total   2897830   34.5  71730     26.1
 2 37980 Philadelphia… 11-0000  Manageme… major    222640   72.9 151700     63.4
 3 37980 Philadelphia… 11-1011  Chief Ex… detail…    4120  163.  338450    141. 
 4 37980 Philadelphia… 11-1021  General … detail…   68730   70.0 145650     58.5
 5 37980 Philadelphia… 11-2011  Advertis… detail…     660   76.0 157990     70.4
 6 37980 Philadelphia… 11-2021  Marketin… detail…    8270   83.1 172890     80.0
 7 37980 Philadelphia… 11-2022  Sales Ma… detail…   10200   82.5 171530     75.2
 8 37980 Philadelphia… 11-2032  Public R… detail…    1310   70.9 147520     62.2
 9 37980 Philadelphia… 11-2033  Fundrais… detail…     950   64.8 134900     59.5
10 37980 Philadelphia… 11-3012  Administ… detail…    3490   65.2 135580     60.0
# ℹ 747 more rows
# ℹ 2 more variables: a_median <dbl>, emp_share <dbl>
philly_oes_25 |>
  filter(o_group == "detailed") |>
  summarise(total = sum(emp_share, na.rm = TRUE))

# A tibble: 1 × 1
  total
  <dbl>
1  99.3

philly_oes_25 |>
  filter(o_group == "major") |>
  arrange(desc(emp_share)) |>
  select(occ_title, tot_emp, emp_share)

# A tibble: 22 × 3
   occ_title                                          tot_emp emp_share
   <chr>                                                <dbl>     <dbl>
 1 Office and Administrative Support Occupations       320580     11.1 
 2 Transportation and Material Moving Occupations      247580      8.54
 3 Food Preparation and Serving Related Occupations    235150      8.11
 4 Healthcare Support Occupations                      225820      7.79
 5 Management Occupations                              222640      7.68
 6 Sales and Related Occupations                       221040      7.63
 7 Healthcare Practitioners and Technical Occupations  213800      7.38
 8 Business and Financial Operations Occupations       200850      6.93
 9 Educational Instruction and Library Occupations     199180      6.87
10 Production Occupations                              111120      3.83
# ℹ 12 more rows

philly_oes_25 |>
  filter(o_group == "detailed") |>
  arrange(desc(emp_share)) |>
  select(occ_title, tot_emp, emp_share)

# A tibble: 734 × 3
   occ_title                                              tot_emp emp_share
   <chr>                                                    <dbl>     <dbl>
 1 Home Health and Personal Care Aides                     158280      5.46
 2 Registered Nurses                                        73790      2.55
 3 Fast Food and Counter Workers                            69080      2.38
 4 General and Operations Managers                          68730      2.37
 5 Retail Salespersons                                      63990      2.21
 6 Cashiers                                                 54100      1.87
 7 Laborers and Freight, Stock, and Material Movers, Hand   51100      1.76
 8 Office Clerks, General                                   45660      1.58
 9 Stockers and Order Fillers                               45770      1.58
10 Waiters and Waitresses                                   41900      1.45
# ℹ 724 more rows
…
