Economic portrait of greater Philadelphia
…
Now check Pennsylvania totals

oes |> 
  filter(area_title == "Pennsylvania") |> 
  select(prim_state, occ_title, tot_emp, h_mean, a_mean)

# A tibble: 814 × 5
   prim_state occ_title                           tot_emp h_mean a_mean
   <chr>      <chr>                                 <dbl>  <dbl>  <dbl>
 1 PA         All Occupations                     6064600   31.6  65730
 2 PA         Management Occupations               460720   64.3 133800
 3 PA         Chief Executives                       8850  146.  302990
 4 PA         General and Operations Managers      172010   60.7 126200
 5 PA         Advertising and Promotions Managers    1540   65.7 136590
 6 PA         Marketing Managers                    13840   76.6 159270
 7 PA         Sales Managers                        20460   70.8 147200
 8 PA         Public Relations Managers              2210   62.9 130880
 9 PA         Fundraising Managers                   1950   59.8 124320
10 PA         Administrative Services Managers       4880   58.3 121220
# ℹ 804 more rows
…
# A tibble: 3 × 4
  prim_state occ_title                             tot_emp h_mean
  <chr>      <chr>                                   <dbl>  <dbl>
1 PA         Oral and Maxillofacial Surgeons            NA   227.
2 PA         Orthopedic Surgeons, Except Pediatric     240   175.
3 PA         Surgeons, All Other                        NA    NA 

#For "Surgeons, All Other" Footnotes: (5) This wage is equal to or greater than $115.00 per hour or $239,200 per year.

#journalists annual wage accross the country

oes |> 
  distinct(area_title)

# A tibble: 54 × 1
   area_title          
   <chr>               
 1 Alabama             
 2 Alaska              
 3 Arizona             
 4 Arkansas            
 5 California          
 6 Colorado            
 7 Connecticut         
 8 Delaware            
 9 District of Columbia
10 Florida             
# ℹ 44 more rows

oes |>
  filter(occ_code == "27-3023") |> 
  select(prim_state, occ_title, tot_emp, a_mean)|> 
  arrange(desc(a_mean))

# A tibble: 52 × 4
   prim_state occ_title                                 tot_emp a_mean
   <chr>      <chr>                                       <dbl>  <dbl>
 1 NY         News Analysts, Reporters, and Journalists    5750 251110
 2 DC         News Analysts, Reporters, and Journalists    1720 174360
 3 CT         News Analysts, Reporters, and Journalists     470 105770
 4 IL         News Analysts, Reporters, and Journalists    1060  87560
 5 GA         News Analysts, Reporters, and Journalists    1520  87210
 6 NV         News Analysts, Reporters, and Journalists     370  83550
 7 MI         News Analysts, Reporters, and Journalists     960  81950
 8 MD         News Analysts, Reporters, and Journalists     580  77570
 9 UT         News Analysts, Reporters, and Journalists     240  77340
10 VA         News Analysts, Reporters, and Journalists    1110  76820
# ℹ 42 more rows
…
More pokin’ around: Examine the OCC_CODE column. The occupations ending in “0000” are occupational categories. Filter OCC_CODE for “0000” and examine the 23 occupational categories.

oes |>
  filter(area_title == "Pennsylvania") |>
  filter(grepl("0000", occ_code)) |>
  select(occ_code, occ_title, tot_emp, a_mean) |>
  arrange(occ_code)

# A tibble: 23 × 4
   occ_code occ_title                                             tot_emp a_mean
   <chr>    <chr>                                                   <dbl>  <dbl>
 1 00-0000  All Occupations                                       6064600  65730
 2 11-0000  Management Occupations                                 460720 133800
 3 13-0000  Business and Financial Operations Occupations          383000  89550
 4 15-0000  Computer and Mathematical Occupations                  181360 105590
 5 17-0000  Architecture and Engineering Occupations                91260  98360
 6 19-0000  Life, Physical, and Social Science Occupations          59660  94370
 7 21-0000  Community and Social Service Occupations               122720  57440
 8 23-0000  Legal Occupations                                       47170 127170
 9 25-0000  Educational Instruction and Library Occupations        368330  68520
10 27-0000  Arts, Design, Entertainment, Sports, and Media Occup…   66910  67740
# ℹ 13 more rows
…
